{
    "id": "43ef230f-bec9-4878-bd78-7f49c07065b8",
    "schema": "https://metadata.datadrivendiscovery.org/schemas/v0/pipeline.json",
    "created": "2019-06-06T22:44:49.439467Z",
    "inputs": [
        {
            "name": "inputs"
        }
    ],
    "outputs": [
        {
            "data": "steps.0.produce",
            "name": "Predictions"
        }
    ],
    "steps": [
        {
            "type": "PRIMITIVE",
            "primitive": {
                "id": "f9440843-5791-4d58-b0a8-617b5cb2371d",
                "version": "1.4.8",
                "python_path": "d3m.primitives.link_prediction.collaborative_filtering_link_prediction.CollaborativeFilteringLinkPrediction",
                "name": "Collaborative Filtering Link Prediction"
            },
            "arguments": {
                "inputs": {
                    "type": "CONTAINER",
                    "data": "inputs.0"
                }
            },
            "outputs": [
                {
                    "id": "produce"
                }
            ]
        }
    ]
}